{
	"n_targets": 188753,
	"n_bootstraps": 0,
	"n_processed": 12885232,
	"n_pseudoaligned": 11339447,
	"n_unique": 2304801,
	"p_pseudoaligned": 88.0,
	"p_unique": 17.9,
	"kallisto_version": "0.46.2",
	"index_version": 10,
	"start_time": "Wed Mar  3 12:44:51 2021",
	"call": "kallisto quant -i ../reference/homo_sapiens/transcriptome.idx -o ../results/kallisto/astroM01 --single -l 50 -s 10 ../data_PROCESSED/astroM01_R1.fastq.gz"
}
