hgnc_symbol,entrezgene_id,entrezgene_description
ABCB4,5244,ATP binding cassette subfamily B member 4
ADGRL2,23266,adhesion G protein-coupled receptor L2
ANO3,63982,anoctamin 3
APLP1,333,amyloid beta precursor like protein 1
APOBR,55911,apolipoprotein B receptor
BCAT1,586,branched chain amino acid transaminase 1
BEAN1,146227,brain expressed associated with NEDD4 1
CACNG4,27092,calcium voltage-gated channel auxiliary subunit gamma 4
CALCRL,10203,calcitonin receptor like receptor
CCDC189,90835,coiled-coil domain containing 189
CCDC28B,79140,coiled-coil domain containing 28B
CCNE1,898,cyclin E1
CD300A,11314,CD300a molecule
CEP112,201134,centrosomal protein 112
CFAP46,54777,cilia and flagella associated protein 46
CHST14,113189,carbohydrate sulfotransferase 14
CNPY4,245812,canopy FGF signaling regulator 4
CRISP3,10321,cysteine rich secretory protein 3
CSPG4,1464,chondroitin sulfate proteoglycan 4
CTF1,1489,cardiotrophin 1
CXCL17,284340,C-X-C motif chemokine ligand 17
DDX3Y,8653,DEAD-box helicase 3 Y-linked
DKK3,27122,dickkopf WNT signaling pathway inhibitor 3
DNM3,26052,dynamin 3
DOC2B,8447,double C2 domain beta
EBF4,57593,EBF family member 4
EIF1AY,9086,eukaryotic translation initiation factor 1A Y-linked
ENTPD3,956,ectonucleoside triphosphate diphosphohydrolase 3
ETV1,2115,ETS variant transcription factor 1
FAM90A1,55138,family with sequence similarity 90 member A1
FGD1,2245,"FYVE, RhoGEF and PH domain containing 1"
FLT3LG,2323,fms related receptor tyrosine kinase 3 ligand
GABRD,2563,gamma-aminobutyric acid type A receptor subunit delta
GC,2638,GC vitamin D binding protein
GKN1,56287,gastrokine 1
GLRB,2743,glycine receptor beta
GNA14,9630,G protein subunit alpha 14
GNA15,2769,G protein subunit alpha 15
GPR132,29933,G protein-coupled receptor 132
GPR87,53836,G protein-coupled receptor 87
GPSM3,63940,G protein signaling modulator 3
GRIN2D,2906,glutamate ionotropic receptor NMDA type subunit 2D
GRIN3B,116444,glutamate ionotropic receptor NMDA type subunit 3B
HMSD,284293,histocompatibility minor serpin domain containing
HOMER3,9454,homer scaffold protein 3
HS3ST5,222537,heparan sulfate-glucosamine 3-sulfotransferase 5
HTR3A,3359,5-hydroxytryptamine receptor 3A
ICAM5,7087,intercellular adhesion molecule 5
IGF2BP1,10642,insulin like growth factor 2 mRNA binding protein 1
IGFBP5,3488,insulin like growth factor binding protein 5
IGSF5,150084,immunoglobulin superfamily member 5
IL17REL,400935,interleukin 17 receptor E like
IRAK3,11213,interleukin 1 receptor associated kinase 3
ITM2A,9452,integral membrane protein 2A
KCNC3,3748,potassium voltage-gated channel subfamily C member 3
KCND1,3750,potassium voltage-gated channel subfamily D member 1
KCTD17,79734,potassium channel tetramerization domain containing 17
KDM5D,8284,lysine demethylase 5D
KIRREL2,84063,kirre like nephrin family adhesion molecule 2
KRBA1,84626,KRAB-A domain containing 1
KY,339855,kyphoscoliosis peptidase
LOXL2,4017,lysyl oxidase like 2
LYPD2,137797,LY6/PLAUR domain containing 2
MASP1,5648,mannan binding lectin serine peptidase 1
MEX3A,92312,mex-3 RNA binding family member A
MFAP2,4237,microfibril associated protein 2
MILR1,284021,mast cell immunoglobulin like receptor 1
MITF,4286,melanocyte inducing transcription factor
MPDZ,8777,multiple PDZ domain crumbs cell polarity complex component
MSMB,4477,microseminoprotein beta
MTCP1,4515,mature T cell proliferation 1
MUC16,94025,"mucin 16, cell surface associated"
NANOS1,340719,nanos C2HC-type zinc finger 1
NCS1,23413,neuronal calcium sensor 1
NFAM1,150372,NFAT activating protein with ITAM motif 1
NKX6-3,157848,NK6 homeobox 3
NPFFR1,64106,neuropeptide FF receptor 1
NPIPB6,728741,nuclear pore complex interacting protein family member B6
NRCAM,4897,neuronal cell adhesion molecule
NTF4,4909,neurotrophin 4
OLFM2,93145,olfactomedin 2
OR7D2,162998,olfactory receptor family 7 subfamily D member 2
OTUD7A,161725,OTU deubiquitinase 7A
P3H2,55214,prolyl 3-hydroxylase 2
PCED1B,91523,PC-esterase domain containing 1B
PCOLCE,5118,procollagen C-endopeptidase enhancer
PDE4A,5141,phosphodiesterase 4A
PIK3C2G,5288,phosphatidylinositol-4-phosphate 3-kinase catalytic subunit type 2 gamma
PKHD1,5314,PKHD1 ciliary IPT domain containing fibrocystin/polyductin
PLEKHO2,80301,pleckstrin homology domain containing O2
PORCN,64840,porcupine O-acyltransferase
PPP1R14A,94274,protein phosphatase 1 regulatory inhibitor subunit 14A
PPP2R2B,5521,protein phosphatase 2 regulatory subunit Bbeta
PRICKLE4,29964,prickle planar cell polarity protein 4
PRKCG,5582,protein kinase C gamma
PRKY,5616,protein kinase Y-linked (pseudogene)
PTGS2,5743,prostaglandin-endoperoxide synthase 2
PXDN,7837,peroxidasin
RERG,85004,RAS like estrogen regulated growth inhibitor
RFTN1,23180,"raftlin, lipid raft linker 1"
RGS19,10287,regulator of G protein signaling 19
RHAG,6005,Rh associated glycoprotein
ROR2,4920,receptor tyrosine kinase like orphan receptor 2
RPL13AP5,728658,ribosomal protein L13a pseudogene 5
RPL36A-HNRNPH2,100529097,RPL36A-HNRNPH2 readthrough
RPS4Y1,6192,ribosomal protein S4 Y-linked 1
RTL8B,441518,retrotransposon Gag like 8B
S100A1,6271,S100 calcium binding protein A1
SAA2-SAA4,100528017,SAA2-SAA4 readthrough
SALL2,6297,spalt like transcription factor 2
SALL4,57167,spalt like transcription factor 4
SBK1,388228,SH3 domain binding kinase 1
SCGB2A1,4246,secretoglobin family 2A member 1
SEMG2,6407,semenogelin 2
SERPINA5,5104,serpin family A member 5
SERPINB3,6317,serpin family B member 3
SERPINB4,6318,serpin family B member 4
SERPING1,710,serpin family G member 1
SFTPA2,729238,surfactant protein A2
SHISA4,149345,shisa family member 4
SLC1A3,6507,solute carrier family 1 member 3
SLC4A3,6508,solute carrier family 4 member 3
SMIM10L2A,399668,small integral membrane protein 10 like 2A
SMO,6608,"smoothened, frizzled class receptor"
SNAI2,6591,snail family transcriptional repressor 2
SOSTDC1,25928,sclerostin domain containing 1
SPRED3,399473,sprouty related EVH1 domain containing 3
SRRM3,222183,serine/arginine repetitive matrix 3
ST3GAL6,10402,"ST3 beta-galactoside alpha-2,3-sialyltransferase 6"
SYNGR1,9145,synaptogyrin 1
SYT11,23208,synaptotagmin 11
TBKBP1,9755,TBK1 binding protein 1
TDRD9,122402,tudor domain containing 9
TDRP,157695,testis development related protein
TFPI2,7980,tissue factor pathway inhibitor 2
TIMP3,7078,TIMP metallopeptidase inhibitor 3
TMEM156,80008,transmembrane protein 156
TNFRSF6B,8771,TNF receptor superfamily member 6b
TRABD2B,388630,TraB domain containing 2B
TRIM17,51127,tripartite motif containing 17
TRIM46,80128,tripartite motif containing 46
TRPV4,59341,transient receptor potential cation channel subfamily V member 4
TSPYL5,85453,TSPY like 5
TXLNGY,246126,"taxilin gamma pseudogene, Y-linked"
UNC5A,90249,unc-5 netrin receptor A
UPK1B,7348,uroplakin 1B
USP44,84101,ubiquitin specific peptidase 44
UTY,7404,"ubiquitously transcribed tetratricopeptide repeat containing, Y-linked"
VAV1,7409,vav guanine nucleotide exchange factor 1
WFDC2,10406,WAP four-disulfide core domain 2
ZFY,7544,zinc finger protein Y-linked
ZNF354C,30832,zinc finger protein 354C
ZNF467,168544,zinc finger protein 467
